D:\Sandeep\projects\Spring\userSpringBootRest\src\main\java\eu\kielczewski\example\controller\UserController.java
D:\Sandeep\projects\Spring\userSpringBootRest\src\main\java\eu\kielczewski\example\service\exception\UserAlreadyExistsException.java
D:\Sandeep\projects\Spring\userSpringBootRest\src\main\java\eu\kielczewski\example\service\UserServiceImpl.java
D:\Sandeep\projects\Spring\userSpringBootRest\src\main\java\eu\kielczewski\example\service\UserService.java
D:\Sandeep\projects\Spring\userSpringBootRest\src\main\java\eu\kielczewski\example\Application.java
D:\Sandeep\projects\Spring\userSpringBootRest\src\main\java\eu\kielczewski\example\domain\User.java
D:\Sandeep\projects\Spring\userSpringBootRest\src\main\java\eu\kielczewski\example\repository\UserRepository.java
